Blockbuster for R Newbies
…
one_yr_later_c <- blockbuster(blockbuster_tibble = blockbuster_pds[c(1, 3, 3, 7), ],
                            forecast_horizon = 1)

Standard subsetting has its place but the dplyr package provides a readily interpretable and beginner friendly system of verbs to manipulate dataframes. We use it here to filter for rows associated with our buildingid of interest.

Using the dplyr vignette, filter the blockbuster_pds dataframe object (I call it a blockbuster_tibble, as it’s a tibble with the variables necessary for use in the blockbuster function) for the correct blocks. What do you think the pipe (|) operator does? Using the dplyr help how might I filter for just these blocks’ roofs?

dplyr::filter(blockbuster::blockbuster_pds,  (buildingid == 4382 |
                buildingid == 4472 |
                buildingid == 4487) #  & element == "Roofs"
              )

## # A tibble: 135 × 25
##     lano siteid buildingid elementid                      element
##    <int>  <int>      <int>     <int>                       <fctr>
## 1    331   1266       4382      1700                        Roofs
## 2    331   1266       4382      1701                        Roofs
## 3    331   1266       4382      1706                        Roofs
## 4    331   1266       4382      1972                        Roofs
## 5    331   1266       4382      1719                        Roofs
## 6    331   1266       4382      1714                        Roofs
## 7    331   1266       4382      1716                        Roofs
## 8    331   1266       4382      1922 Fixed Furniture and Fittings
## 9    331   1266       4382      1924 Fixed Furniture and Fittings
## 10   331   1266       4382      1928 Fixed Furniture and Fittings
## # ... with 125 more rows, and 20 more variables: sub_element <fctr>,
## #   const_type <fctr>, const_type_accessible <fctr>, grade <fctr>,
## #   cost <dbl>, composition <dbl>, storeys <dbl>, gifa <dbl>,
## #   ground_gifa <dbl>, block_perimeter <dbl>, height <dbl>,
## #   windows_doors <dbl>, number_lifts <dbl>, site_area_exc_field <dbl>,
## #   boundary_length <dbl>, field_area <dbl>, swimming_pool <fctr>,
## #   timestep <int>, unit_area <dbl>, cost_sum <dbl>
…
Summary

summary(y)

Handling a list

The blockbuster function produces a list of dataframes with timestep == 0 at index 1 and the last year in the simulation at index forecast_horizon + 1.

#  y[[1]]  #  timestep 0

final_year <- y[[6]]
final_year

## # A tibble: 646 × 27
##     lano siteid buildingid elementid  element sub_element
##    <int>  <int>      <int>     <int>   <fctr>      <fctr>
## 1    831   1301       4472      1810 Ceilings   Generally
## 2    831   1301       4472      1810 Ceilings   Generally
## 3    831   1301       4472      1810 Ceilings   Generally
## 4    831   1301       4472      1810 Ceilings   Generally
## 5    831   1301       4472      1810 Ceilings   Generally
## 6    831   1301       4472      1809 Ceilings   Generally
## 7    831   1301       4472      1809 Ceilings   Generally
## 8    831   1301       4472      1809 Ceilings   Generally
## 9    831   1301       4472      1809 Ceilings   Generally
## 10   831   1301       4472      1813 Ceilings   Generally
## # ... with 636 more rows, and 21 more variables: const_type <fctr>,
## #   const_type_accessible <fctr>, grade <fctr>, cost <dbl>,
## #   composition <dbl>, storeys <dbl>, gifa <dbl>, ground_gifa <dbl>,
## #   block_perimeter <dbl>, height <dbl>, windows_doors <dbl>,
## #   number_lifts <dbl>, site_area_exc_field <dbl>, boundary_length <dbl>,
## #   field_area <dbl>, swimming_pool <fctr>, timestep <dbl>,
## #   cost_sum <dbl>, concated <chr>, block_rebuild_cost <dbl>,
## #   unit_area <dbl>
…
