Blockbuster modelling: wow; what a difference!
…
head(my_wall_next_year[[2]]$timestep, 1)  #  1 timestep later than initial

## [1] 1

Blockbusting through many rows

The same principle applies as above where we pass the blockbuster function an input tibble object and the number of years into the future (relative to when the data was collected) we want to model to.

y <- blockbuster_pds[1:20, ]  #  select all rows associated with decision level of interest, perhaps one block or one LA?
my_block_10years <- blockbuster(y, 10)
dplyr::select(my_block_10years[[11]],
              buildingid, elementid, grade, unit_area) %>%
  dplyr::arrange(elementid, grade)

## # A tibble: 89 × 4
##    buildingid elementid  grade   unit_area
##         <int>     <int> <fctr>       <dbl>
## 1        4382      1700      A 190.5651038
## 2        4382      1700      B  81.2268898
## 3        4382      1700      C  21.7992880
## 4        4382      1700      D   8.2638365
## 5        4382      1700      E   6.5448820
## 6        4382      1701      A 584.9129266
## 7        4382      1701      B 115.0598531
## 8        4382      1701      C  15.7167642
## 9        4382      1701      D   3.0563950
## 10       4382      1701      E   0.8540611
## # ... with 79 more rows
…
